{
  "name": "",
  "css_prefix_text": "icon-",
  "css_use_suffix": false,
  "hinting": true,
  "units_per_em": 1000,
  "ascent": 850,
  "glyphs": [
    {
      "uid": "0a4e683817f7af7b8335e501d29179a5",
      "css": "cup",
      "code": 59392,
      "src": "custom_icons",
      "selected": false,
      "svg": {
        "path": "M1255.7 1.8L1183.4 1.7C1178.1 1.7 1173.3 3.4 1168.5 4.8 1163.5 3.2 1158.6 1.6 1153 1.6L55.8 0C25.1 0 0.3 24.6 0.2 55.3L0 208.2C-0.4 523.3 255.5 779.9 570.5 780.3L636.1 780.4C951 780.9 1207.7 524.9 1208.1 210L1208.2 112.5 1255.5 112.6C1312.1 112.7 1358 158.9 1358 215.3L1357.9 235.5C1357.9 291.9 1311.8 338 1255.2 337.9 1224.6 337.9 1199.7 362.6 1199.7 393.3 1199.6 423.9 1224.4 448.7 1255.1 448.7 1372.7 448.9 1468.6 353.4 1468.8 235.7V215.5C1469 97.8 1373.4 2 1255.7 1.8M1097.2 209.7C1096.9 463.7 890.1 670 636.3 669.6L570.7 669.5C316.8 669.2 110.5 462.2 110.9 208.3L111.1 110.9 1097.5 112.3 1097.2 209.7ZM1046.4 889.1L135.7 887.8C105 887.8 80.2 912.5 80.1 943.3 80.1 973.8 104.9 998.7 135.5 998.7L1046.3 1000C1077 1000.1 1101.8 975.3 1101.8 944.7 1101.8 914 1077.1 889.2 1046.4 889.1",
        "width": 1469
      },
      "search": [
        "cup"
      ]
    },
    {
      "uid": "ed375ac98b82c6910dafacc88d641e89",
      "css": "database",
      "code": 59393,
      "src": "custom_icons",
      "selected": false,
      "svg": {
        "path": "M862.8 437.5C844.2 437.5 829.2 452.7 829.2 471.5V651.9C829.2 670.7 844.2 685.9 862.8 685.9S896.4 670.7 896.4 651.9V471.5C896.4 452.7 881.4 437.5 862.8 437.5ZM862.8 751.5C844.2 751.5 829.2 766.7 829.2 785.5V966C829.2 984.8 844.2 1000 862.8 1000S896.4 984.7 896.4 966V785.5C896.4 766.7 881.4 751.5 862.8 751.5ZM846.6-0.1H95.3C42.9-0.1 0 43.4 0 96.5V903.4C0 956.5 42.9 999.9 95.3 999.9H667.1C719.5 999.9 762.4 956.4 762.4 903.4V459.6C762.4 406.5 808.2 363.1 855.6 363.1 903 363.1 941.9 319.7 941.9 266.6V96.5C941.9 43.4 899-0.1 846.6-0.1ZM874.7 266.6C874.7 282.9 864.6 295.1 855.7 295.1 771 295.1 695.2 368.9 695.2 459.7V903.4C695.2 918.8 682.3 931.8 667.1 931.8H95.3C80.1 931.8 67.2 918.8 67.2 903.4V96.5C67.2 81.1 80.1 68 95.3 68H846.6C861.8 68 874.7 81 874.7 96.5V266.6ZM550.4 613.1L475.3 585.8C475.3 585.8 475.3 585.7 475.2 585.7 469.9 582.5 464.6 579.4 459.3 576.2 456.2 574.3 453.2 572.3 450.2 570.3 449.9 570.1 448.8 569.4 447.6 568.5 478.3 544.8 498.8 502.6 498.8 454.3 498.8 380.2 450.6 320.1 391.2 320.1S283.5 380.2 283.5 454.3C283.5 502.4 303.8 544.5 334.3 568.2 329.5 573.9 324.6 578.4 319.7 582.3 318.1 582.2 316.4 582.4 314.8 583L231.9 613.1C214.7 619.3 201.3 638.7 201.3 657.2V666C201.3 686.1 217.5 702.5 237.4 702.5H545C564.9 702.5 581.1 686.1 581.1 666V657.2C581.1 638.7 567.6 619.4 550.4 613.1Z",
        "width": 942
      },
      "search": [
        "database"
      ]
    },
    {
      "uid": "66bc15891d1c76b907519078f6aaa9ff",
      "css": "map_point",
      "code": 59392,
      "src": "custom_icons",
      "selected": true,
      "svg": {
        "path": "M375 0C168.2 0 0 168.2 0 375 0 453.8 24.5 529.4 70.8 593.6L80.6 607.4 350 987.5C355.9 995.4 365.2 1000 375 1000 384.8 1000 394.1 995.4 400 987.5L666 611.9 679.1 593.8C725.5 529.4 750 453.8 750 375 750 168.2 581.8 0 375 0M375 500C306.1 500 250 443.9 250 375 250 306.1 306.1 250 375 250 443.9 250 500 306.1 500 375 500 443.9 443.9 500 375 500",
        "width": 750
      },
      "search": [
        "map_point"
      ]
    },
    {
      "uid": "58c75a60c5472ed1dd97e73301e19941",
      "css": "person",
      "code": 59399,
      "src": "custom_icons",
      "selected": true,
      "svg": {
        "path": "M408 482.3C275.1 482.3 166.8 374.2 166.8 241.1 166.8 108.2 275.1 0 408 0S649.1 108.2 649.1 241.1C649.1 374.2 541 482.3 408 482.3M408 75.4C316.7 75.4 242.3 149.8 242.3 241.1 242.3 332.5 316.7 406.9 408 406.9S573.7 332.5 573.7 241.1C573.7 149.8 499.4 75.4 408 75.4M404.8 1000C400.1 1000 395.5 999.1 390.9 997.3L23.9 852.2C9.6 846.6 0 832.6 0 817.1 0 592.2 183 409.4 408 409.4 632.9 409.4 815.9 592.2 815.9 817.1 815.9 832.7 806.5 846.7 791.9 852.3L418.5 997.3C414.1 999.1 409.5 1000 404.8 1000M76.5 791.9L404.9 921.7 739.6 791.7C726.5 620.2 582.8 484.8 408 484.8 233.1 484.8 89.4 620.4 76.5 791.9M404.8 1000H404.5C386.5 999.8 371 986.9 367.8 969.1L276.6 477.6C272.8 457.1 286.3 437.3 306.8 433.6 327.3 429.7 346.9 443.3 350.7 463.8L406.4 763.9 466.4 466.7C470.5 446.3 490.2 432.8 510.9 437.2 531.4 441.4 544.5 461.3 540.4 481.7L441.7 969.7C438.3 987.3 422.8 1000 404.8 1000",
        "width": 816
      },
      "search": [
        "person"
      ]
    },
    {
      "uid": "40a39a94a494508c2d7ae1a16bbac78e",
      "css": "mobile",
      "code": 59393,
      "src": "custom_icons",
      "selected": true,
      "svg": {
        "path": "M493.5 0H72.7C32.5 0 0 32.6 0 72.8V927.3C0 967.4 32.5 1000 72.7 1000H493.5C533.7 1000 566.3 967.4 566.3 927.3V72.8C566.3 32.6 533.7 0 493.5 0M283.1 928.1C257.5 928.1 236.7 907.3 236.7 881.6 236.7 856 257.5 835.2 283.1 835.2 308.7 835.2 329.5 856 329.5 881.6 329.5 907.3 308.7 928.1 283.1 928.1M511.7 768.9H54.5V122.9H511.7V768.9ZM380.7 73.9H185.6V52.7H380.7V73.9ZM464.2 64.2C464.2 74.5 455.8 82.8 445.5 82.8 435.2 82.8 426.9 74.5 426.9 64.2S435.2 45.6 445.5 45.6C455.8 45.6 464.2 53.9 464.2 64.2",
        "width": 566
      },
      "search": [
        "phone"
      ]
    },
    {
      "uid": "de2741b9a54e6b8a28cba59ad7ac0425",
      "css": "repeat",
      "code": 59397,
      "src": "custom_icons",
      "selected": false,
      "svg": {
        "path": "M129.2 488.4C131.6 488.9 134 489.1 136.5 489.1 144.9 489.1 153.1 486.3 159.8 481.1L317.4 359.9C334.2 347 337.3 322.9 324.5 306.1 311.5 289.1 287.4 286.1 270.7 299L192.9 358.8C252 193.6 410.6 76.7 591.8 76.7 789.2 76.7 958.9 210.7 1004.4 402.5 1009.2 423.1 1029.7 436 1050.6 431 1071.1 426.1 1083.9 405.4 1079 384.8 1025.4 158.2 825 0 591.8 0 374.4 0 183.9 142.3 117 342.6L71.4 265.7C60.6 247.5 37 241.6 18.8 252.3 0.6 263.1-5.5 286.6 5.4 304.8L103.5 470.3C109 479.7 118.4 486.3 129.2 488.4M1173.2 695.2L1075.2 529.8C1069.6 520.3 1060.2 513.7 1049.4 511.6 1038.6 509.6 1027.5 512.3 1018.8 518.9L861.2 640.1C844.4 653 841.3 677.1 854.1 693.9 867 710.8 891.1 713.8 907.9 701L985.8 641.1C926.7 806.4 768 923.3 586.8 923.3 389.3 923.3 219.7 789.3 174.2 597.5 169.3 576.9 148.9 564.1 128 569 107.4 573.9 94.7 594.6 99.6 615.2 153.2 841.8 353.6 1000 586.8 1000 804.2 1000 994.7 857.8 1061.7 657.6L1107.2 734.3C1114.4 746.4 1127.2 753.1 1140.2 753.1 1146.9 753.1 1153.6 751.4 1159.8 747.8 1178 737 1184.1 713.4 1173.2 695.2",
        "width": 1179
      },
      "search": [
        "repeat"
      ]
    },
    {
      "uid": "1b0bf52b880315dd42619dab38093f35",
      "css": "checked",
      "code": 59398,
      "src": "custom_icons",
      "selected": false,
      "svg": {
        "path": "M864.1 22.7C834.7 5.8 797.3 16 780.5 45.2L349.3 794.1 108.4 553.1C84.4 529.2 45.7 529.2 21.8 553.1-2.1 577-2.1 615.8 21.8 639.7L375.8 993.7 886.7 106.4C903.5 77 893.4 39.6 864.1 22.7Z",
        "width": 894
      },
      "search": [
        "checked"
      ]
    },
    {
      "uid": "9869768d698f57cbd9255f2650f5f603",
      "css": "search",
      "code": 59395,
      "src": "custom_icons",
      "selected": true,
      "svg": {
        "path": "M939.4 893.8L766 719C737.9 753.7 703.9 783.2 665.4 806.1L630.6 769C749.7 697.2 829.3 566.6 829.3 417.4 829.3 190.7 645.6 6.9 418.9 6.9 192.2 6.9 8.5 190.7 8.5 417.4 8.5 644.1 192.2 827.8 418.9 827.8 496.3 827.8 568.7 806.3 630.5 769.1L665.4 806.1C665.3 806.1 665.2 806.2 665.1 806.2L845.7 988.2 856.5 999.1 867.3 988.2 939.4 915.6 950.2 904.7 939.4 893.8ZM418.9 687.1C270.2 687.1 149.2 566.1 149.2 417.4 149.2 268.6 270.2 147.6 418.9 147.6 567.6 147.6 688.6 268.6 688.6 417.4 688.6 566.1 567.6 687.1 418.9 687.1Z",
        "width": 1000
      },
      "search": [
        "search"
      ]
    },
    {
      "uid": "4f66acc68eb326db1d7143b01aa945bf",
      "css": "edit",
      "code": 59396,
      "src": "custom_icons",
      "selected": true,
      "svg": {
        "path": "M968 34.7C1004.3 71 1004.3 129.9 968 166.3L924.1 210.1 792.5 78.5 836.3 34.7C872.7-1.7 931.6-1.7 968 34.7ZM310 561.1L266.1 736.5 441.5 692.6 880.2 253.9 748.6 122.3 310 561.1ZM747 474.9V875.9H126.7V255.6H527.7L651.8 131.5H2.6V1000H871.1V350.8L747 474.9Z",
        "width": 1000
      },
      "search": [
        "edit"
      ]
    },
    {
      "uid": "7d7f5e6184af0634f67560b4c8443cd7",
      "css": "checked",
      "code": 59403,
      "src": "custom_icons",
      "selected": true,
      "svg": {
        "path": "M499 2.2C225 2.2 2.1 225.1 2.1 499.1 2.1 773.1 225 996 499 996 773 996 995.9 773.1 995.9 499.1 995.9 225.1 773 2.2 499 2.2ZM499 886C285.6 886 112.1 712.5 112.1 499.1 112.1 285.8 285.6 112.2 499 112.2 626 112.2 738.9 173.7 809.5 268.5L783.7 298.4 787.5 293.1 690.3 223.1 405.3 577.1 236.1 459.5 153.9 546.6 422.6 758.1 783.6 298.6 809.5 268.5C857.5 333 886 412.8 886 499.1 885.9 712.5 712.3 886 499 886Z",
        "width": 1000
      },
      "search": [
        "checked"
      ]
    },
    {
      "uid": "5d2d07f112b8de19f2c0dbfec3e42c05",
      "css": "spin5",
      "code": 59402,
      "src": "fontelico"
    },
    {
      "uid": "559647a6f430b3aeadbecd67194451dd",
      "css": "menu",
      "code": 59398,
      "src": "fontawesome"
    },
    {
      "uid": "e335adbc2d898c7d85d40c507796e7b4",
      "css": "mail",
      "code": 59394,
      "src": "entypo"
    },
    {
      "uid": "1256e3054823e304d7e452a589cf8bb8",
      "css": "minus",
      "code": 59400,
      "src": "entypo"
    },
    {
      "uid": "7e4164950ffa4990961958b2d6318658",
      "css": "info-circled",
      "code": 59401,
      "src": "entypo"
    },
    {
      "uid": "1dq4tek4k8ea7zlj4kc3w83itnutaxg5",
      "css": "cancel",
      "code": 59397,
      "src": "typicons"
    }
  ]
}